module github.com/adeindra6/oninyon-test

go 1.18

require (
	github.com/dgrijalva/jwt-go v3.2.0+incompatible // indirect
	github.com/go-sql-driver/mysql v1.7.0 // indirect
	github.com/gorilla/mux v1.8.1 // indirect
	github.com/jinzhu/inflection v1.0.0 // indirect
	github.com/jinzhu/now v1.1.5 // indirect
	gorm.io/driver/mysql v1.5.6 // indirect
	gorm.io/gorm v1.25.10 // indirect
)
